^D:\MACO\DOCUMENTS\AI IN GAMES PROJECT\100052208\GAMESAIPROJECT -VS2012\DEBUG\AIACTOR.OBJ|D:\MACO\DOCUMENTS\AI IN GAMES PROJECT\100052208\GAMESAIPROJECT -VS2012\DEBUG\AIACTORBUG.OBJ|D:\MACO\DOCUMENTS\AI IN GAMES PROJECT\100052208\GAMESAIPROJECT -VS2012\DEBUG\AIACTORLIZARD.OBJ|D:\MACO\DOCUMENTS\AI IN GAMES PROJECT\100052208\GAMESAIPROJECT -VS2012\DEBUG\ASTAR.OBJ|D:\MACO\DOCUMENTS\AI IN GAMES PROJECT\100052208\GAMESAIPROJECT -VS2012\DEBUG\CONSOLE.OBJ|D:\MACO\DOCUMENTS\AI IN GAMES PROJECT\100052208\GAMESAIPROJECT -VS2012\DEBUG\DRAWABLE.OBJ|D:\MACO\DOCUMENTS\AI IN GAMES PROJECT\100052208\GAMESAIPROJECT -VS2012\DEBUG\FOOD.OBJ|D:\MACO\DOCUMENTS\AI IN GAMES PROJECT\100052208\GAMESAIPROJECT -VS2012\DEBUG\FSMMACHINE.OBJ|D:\MACO\DOCUMENTS\AI IN GAMES PROJECT\100052208\GAMESAIPROJECT -VS2012\DEBUG\FSMSTATE.OBJ|D:\MACO\DOCUMENTS\AI IN GAMES PROJECT\100052208\GAMESAIPROJECT -VS2012\DEBUG\FSMSTATEBUGEATFOOD.OBJ|D:\MACO\DOCUMENTS\AI IN GAMES PROJECT\100052208\GAMESAIPROJECT -VS2012\DEBUG\FSMSTATEBUGFINDMATE.OBJ|D:\MACO\DOCUMENTS\AI IN GAMES PROJECT\100052208\GAMESAIPROJECT -VS2012\DEBUG\FSMSTATEBUGGOHOME.OBJ|D:\MACO\DOCUMENTS\AI IN GAMES PROJECT\100052208\GAMESAIPROJECT -VS2012\DEBUG\FSMSTATEBUGMATE.OBJ|D:\MACO\DOCUMENTS\AI IN GAMES PROJECT\100052208\GAMESAIPROJECT -VS2012\DEBUG\FSMSTATEBUGREST.OBJ|D:\MACO\DOCUMENTS\AI IN GAMES PROJECT\100052208\GAMESAIPROJECT -VS2012\DEBUG\FSMSTATEBUGRUNAWAY.OBJ|D:\MACO\DOCUMENTS\AI IN GAMES PROJECT\100052208\GAMESAIPROJECT -VS2012\DEBUG\FSMSTATEBUGWANDER.OBJ|D:\MACO\DOCUMENTS\AI IN GAMES PROJECT\100052208\GAMESAIPROJECT -VS2012\DEBUG\FSMSTATELIZARDCHASEBUG.OBJ|D:\MACO\DOCUMENTS\AI IN GAMES PROJECT\100052208\GAMESAIPROJECT -VS2012\DEBUG\FSMSTATELIZARDEATBUG.OBJ|D:\MACO\DOCUMENTS\AI IN GAMES PROJECT\100052208\GAMESAIPROJECT -VS2012\DEBUG\FSMSTATELIZARDFINDMATE.OBJ|D:\MACO\DOCUMENTS\AI IN GAMES PROJECT\100052208\GAMESAIPROJECT -VS2012\DEBUG\FSMSTATELIZARDGOHOME.OBJ|D:\MACO\DOCUMENTS\AI IN GAMES PROJECT\100052208\GAMESAIPROJECT -VS2012\DEBUG\FSMSTATELIZARDMATE.OBJ|D:\MACO\DOCUMENTS\AI IN GAMES PROJECT\100052208\GAMESAIPROJECT -VS2012\DEBUG\FSMSTATELIZARDREST.OBJ|D:\MACO\DOCUMENTS\AI IN GAMES PROJECT\100052208\GAMESAIPROJECT -VS2012\DEBUG\FSMSTATELIZARDRESTAWAY.OBJ|D:\MACO\DOCUMENTS\AI IN GAMES PROJECT\100052208\GAMESAIPROJECT -VS2012\DEBUG\FSMSTATELIZARDWANDER.OBJ|D:\MACO\DOCUMENTS\AI IN GAMES PROJECT\100052208\GAMESAIPROJECT -VS2012\DEBUG\GAMEWORLD.OBJ|D:\MACO\DOCUMENTS\AI IN GAMES PROJECT\100052208\GAMESAIPROJECT -VS2012\DEBUG\GLFONT2.OBJ|D:\MACO\DOCUMENTS\AI IN GAMES PROJECT\100052208\GAMESAIPROJECT -VS2012\DEBUG\HOME.OBJ|D:\MACO\DOCUMENTS\AI IN GAMES PROJECT\100052208\GAMESAIPROJECT -VS2012\DEBUG\MAIN.OBJ|D:\MACO\DOCUMENTS\AI IN GAMES PROJECT\100052208\GAMESAIPROJECT -VS2012\DEBUG\POINT2D.OBJ|D:\MACO\DOCUMENTS\AI IN GAMES PROJECT\100052208\GAMESAIPROJECT -VS2012\DEBUG\STATISTICS.OBJ|D:\MACO\DOCUMENTS\AI IN GAMES PROJECT\100052208\GAMESAIPROJECT -VS2012\DEBUG\TEXTURELIB.OBJ
D:\MACO\DOCUMENTS\AI IN GAMES PROJECT\100052208\GAMESAIPROJECT -VS2012\DEBUG\AIGAMESPROJECTFSM.EXE
D:\MACO\DOCUMENTS\AI IN GAMES PROJECT\100052208\GAMESAIPROJECT -VS2012\DEBUG\AIGAMESPROJECTFSM.PDB
